four_bit_adder_waves.vcd
$date
	Wed Feb 12 21:03:37 2025
$end
$version
	Icarus Verilog
$end
$timescale
	1ns
$end
$scope module full_adder_top $end
$scope module four_bit_adder $end
$var wire 4 ! a [3:0] $end
$var wire 4 " b [3:0] $end
$var wire 1 # cin $end
$var wire 1 $ cout $end
$var wire 1 % overfl $end
$var wire 4 & y [3:0] $end
$var wire 1 ' s9 $end
$var wire 1 ( s8 $end
$var wire 1 ) s7 $end
$var wire 1 * s6 $end
$var wire 1 + s5 $end
$var wire 1 , s4 $end
$var wire 1 - s3 $end
$var wire 1 . s2 $end
$var wire 1 / s14 $end
$var wire 1 0 s13 $end
$var wire 1 1 s12 $end
$var wire 1 2 s11 $end
$var wire 1 3 s10 $end
$var wire 1 4 s1 $end
$var wire 1 5 s0 $end
$var wire 1 6 cout_temp $end
$scope module full_adder_i0 $end
$var wire 1 1 a $end
$var wire 1 0 b $end
$var wire 1 # cin $end
$var wire 1 3 cout $end
$var wire 1 / sum $end
$upscope $end
$scope module full_adder_i1 $end
$var wire 1 ( a $end
$var wire 1 ' b $end
$var wire 1 3 cin $end
$var wire 1 * cout $end
$var wire 1 2 sum $end
$upscope $end
$scope module full_adder_i2 $end
$var wire 1 , a $end
$var wire 1 + b $end
$var wire 1 * cin $end
$var wire 1 . cout $end
$var wire 1 ) sum $end
$upscope $end
$scope module full_adder_i3 $end
$var wire 1 5 a $end
$var wire 1 4 b $end
$var wire 1 . cin $end
$var wire 1 6 cout $end
$var wire 1 - sum $end
$upscope $end
$upscope $end
$upscope $end
$enddefinitions $end
$comment Show the parameter values. $end
$dumpall
$end
#0
$dumpvars
06
05
04
03
02
01
00
0/
0.
0-
0,
0+
0*
0)
0(
0'
b0 &
0%
0$
0#
b0 "
b0 !
$end
#10
b10 &
12
13
11
10
b1 !
b1 "
#20
02
1)
b101 &
1/
03
1*
1(
01
1'
b10 !
b11 "
#30
1-
1%
b1001 &
0)
1.
0*
1,
0(
1+
0'
b100 !
b101 "
#40
0$
06
0%
12
b1111 &
1)
0.
1(
11
14
0+
00
b111 !
b1000 "
#50
1$
16
1.
1*
b1110 &
0/
13
15
1+
1'
10
b1111 !
b1111 "
#60
0-
0)
0$
06
0.
0*
b11 &
1/
05
0,
0(
04
0+
0'
1#
b1 !
b1 "
#70
1-
1%
1.
1*
02
0)
b1000 &
0/
1(
1+
00
b11 !
b100 "
#80
0-
0%
0.
1)
b110 &
12
01
0+
1'
10
b10 !
b11 "
#90
0)
b1010 &
1-
1%
0*
1.
1,
0(
11
1+
0'
00
b101 !
b100 "
#100
0-
1$
16
0%
1*
0)
1.
b0 &
02
15
0,
01
1'
10
b1000 !
b111 "
#110
1)
12
1/
b1111 &
1-
1,
1(
11
14
b1111 !
b1111 "
#120
0-
0.
0*
0%
0$
06
1)
03
b111 &
1/
05
0,
04
0'
00
0#
b11 !
b100 "
#130
1*
02
1-
1%
13
1)
1.
b1100 &
0/
1,
01
10
1#
b110 !
b101 "
#140
0)
0-
0*
0.
03
02
1$
16
b1 &
1/
15
0,
0(
11
14
0+
00
0#
b1001 !
b1000 "
#150
1.
12
0%
13
0-
1$
16
1*
b10 &
0/
1(
01
04
1+
1'
10
1#
b1010 !
b111 "
